INDEX VERSION 1.126+/home/rohit4/programming/interview_stuff/moocs/parallel_programming/week0/example/.metadata/.plugins/org.eclipse.jdt.core
3230350084.index
4013965720.index
2267759060.index
1060715839.index
3375680464.index
2185619954.index
493654437.index
1252353666.index
